<svg width="24" height="24" viewBox="0 0 24 24" fill="none" xmlns="http://www.w3.org/2000/svg">
<path d="M23 0H1C0.447715 0 0 0.447715 0 1V23C0 23.5523 0.447715 24 1 24H23C23.5523 24 24 23.5523 24 23V1C24 0.447715 23.5523 0 23 0Z" fill="none"/>
<path d="M20.4699 13.3319C20.5448 12.8918 20.5841 12.4464 20.5872 12C20.5841 11.5536 20.5448 11.1082 20.4699 10.6681L22.3949 8.80817C22.5417 8.66613 22.6368 8.47914 22.6652 8.27687C22.6936 8.07459 22.6536 7.86863 22.5516 7.69167L21.1766 5.30833C21.0732 5.13203 20.9143 4.99494 20.7248 4.91848C20.5352 4.84203 20.3257 4.83052 20.1289 4.88575L17.5622 5.61908C16.8673 5.05307 16.085 4.60384 15.2458 4.289L14.6014 1.69483C14.5519 1.49644 14.4375 1.32028 14.2764 1.19438C14.1153 1.06848 13.9167 1.00006 13.7122 1H10.9622C10.7578 1.00006 10.5592 1.06848 10.3981 1.19438C10.2369 1.32028 10.1225 1.49644 10.0731 1.69483L9.42498 4.289C8.58713 4.6042 7.80604 5.05341 7.11223 5.61908L4.54557 4.88575C4.34877 4.83068 4.13929 4.84227 3.94976 4.91871C3.76024 4.99514 3.60134 5.13214 3.49782 5.30833L2.12282 7.69167C2.02059 7.86873 1.98049 8.07488 2.00889 8.27735C2.03729 8.47982 2.13257 8.66699 2.27957 8.80908L4.20457 10.669C4.12966 11.1088 4.09043 11.5539 4.08723 12C4.09038 12.4464 4.12961 12.8918 4.20457 13.3319L2.27957 15.1918C2.13278 15.3339 2.03764 15.5209 2.00924 15.7231C1.98085 15.9254 2.02082 16.1314 2.12282 16.3083L3.49782 18.6917C3.57835 18.8311 3.69421 18.947 3.83373 19.0274C3.97325 19.1079 4.13151 19.1502 4.29257 19.15C4.37777 19.1496 4.46254 19.1379 4.54465 19.1152L7.11132 18.3818C7.80624 18.9479 8.58859 19.3971 9.42773 19.7119L10.0758 22.3061C10.1254 22.5039 10.2394 22.6795 10.4 22.8051C10.5605 22.9308 10.7584 22.9994 10.9622 23H13.7122C13.9167 22.9999 14.1153 22.9315 14.2764 22.8056C14.4375 22.6797 14.5519 22.5036 14.6014 22.3052L15.2495 19.711C16.0873 19.3958 16.8684 18.9466 17.5622 18.3809L20.1289 19.1143C20.211 19.137 20.2958 19.1487 20.381 19.1491C20.542 19.1492 20.7003 19.107 20.8398 19.0265C20.9793 18.946 21.0952 18.8302 21.1757 18.6908L22.5507 16.3074C22.653 16.1304 22.6931 15.9242 22.6647 15.7217C22.6363 15.5193 22.541 15.3321 22.394 15.19L20.4699 13.3319ZM12.3372 15.6667C11.612 15.6667 10.9031 15.4516 10.3001 15.0487C9.69716 14.6458 9.2272 14.0732 8.94967 13.4032C8.67215 12.7332 8.59954 11.9959 8.74102 11.2847C8.8825 10.5734 9.23172 9.92007 9.74451 9.40728C10.2573 8.89448 10.9106 8.54527 11.6219 8.40379C12.3332 8.26231 13.0704 8.33492 13.7404 8.61244C14.4104 8.88996 14.9831 9.35993 15.386 9.96291C15.7889 10.5659 16.0039 11.2748 16.0039 12C16.0039 12.9725 15.6176 13.9051 14.93 14.5927C14.2423 15.2804 13.3097 15.6667 12.3372 15.6667Z" fill="#9BB2BA"/>
</svg>
