<svg width="26" height="26" viewBox="0 0 26 26" fill="none" xmlns="http://www.w3.org/2000/svg">
<path d="M13 25.1875C19.731 25.1875 25.1875 19.731 25.1875 13C25.1875 6.26903 19.731 0.8125 13 0.8125C6.26903 0.8125 0.8125 6.26903 0.8125 13C0.8125 19.731 6.26903 25.1875 13 25.1875Z" fill="#6FBE44" stroke="#6FBE44" stroke-width="1.5" stroke-linecap="round" stroke-linejoin="round"/>
<path d="M9.75 16.25C12.218 16.25 14.2188 14.2493 14.2188 11.7812C14.2188 9.31323 12.218 7.3125 9.75 7.3125C7.28198 7.3125 5.28125 9.31323 5.28125 11.7812C5.28125 14.2493 7.28198 16.25 9.75 16.25Z" stroke="white" stroke-width="1.5" stroke-linecap="round" stroke-linejoin="round"/>
<path d="M6.5 18.6334C8.23804 17.7725 10.2467 17.6367 12.0848 18.2558C13.9229 18.875 15.4401 20.1984 16.3031 21.9354" stroke="white" stroke-width="1.5" stroke-linecap="round" stroke-linejoin="round"/>
<path d="M19.2963 16.6562C20.9794 16.6562 22.3438 15.2919 22.3438 13.6088C22.3438 11.9258 20.9794 10.5614 19.2963 10.5614C17.6133 10.5614 16.2489 11.9258 16.2489 13.6088C16.2489 15.2919 17.6133 16.6562 19.2963 16.6562Z" stroke="white" stroke-width="1.5" stroke-linecap="round" stroke-linejoin="round"/>
</svg>
