
<svg width="15" height="14" viewBox="0 0 15 14" fill="none" xmlns="http://www.w3.org/2000/svg">
<path d="M7.5 12C8.05228 12 8.5 11.5523 8.5 11C8.5 10.4477 8.05228 10 7.5 10C6.94772 10 6.5 10.4477 6.5 11C6.5 11.5523 6.94772 12 7.5 12Z" fill="#1A1A1A"/>
<path fill-rule="evenodd" clip-rule="evenodd" d="M7.5 4.5C7.77614 4.5 8 4.72386 8 5V8.5C8 8.77614 7.77614 9 7.5 9C7.22386 9 7 8.77614 7 8.5V5C7 4.72386 7.22386 4.5 7.5 4.5Z" fill="#1A1A1A"/>
<path fill-rule="evenodd" clip-rule="evenodd" d="M7.5 0C7.68394 0 7.85303 0.100995 7.94024 0.26295L14.9402 13.2629C15.0237 13.4179 15.0195 13.6053 14.9293 13.7564C14.839 13.9075 14.676 14 14.5 14H0.5C0.324014 14 0.160986 13.9075 0.0707421 13.7564C-0.0195014 13.6053 -0.0236706 13.4179 0.0597646 13.2629L7.05976 0.26295C7.14697 0.100995 7.31606 0 7.5 0ZM1.33711 13H13.6629L7.5 1.55463L1.33711 13Z" fill="#1A1A1A"/>
</svg>
