<svg width="12" height="12" viewBox="0 0 12 12" fill="none" xmlns="http://www.w3.org/2000/svg">
<path d="M11.25 9.75H7.5C7.5 10.2 7.2 10.5 6.75 10.5H5.25C4.8 10.5 4.5 10.2 4.5 9.75H0.75V11.25C0.75 11.7 1.05 12 1.5 12H10.5C10.95 12 11.25 11.7 11.25 11.25V9.75Z" fill="#808080"/>
<path d="M11.25 3H9V0.75C9 0.3 8.7 0 8.25 0H3.75C3.3 0 3 0.3 3 0.75V3H0.75C0.3 3 0 3.3 0 3.75V8.25C0 8.7 0.3 9 0.75 9H4.5V8.25C4.5 7.8 4.8 7.5 5.25 7.5H6.75C7.2 7.5 7.5 7.8 7.5 8.25V9H11.25C11.7 9 12 8.7 12 8.25V3.75C12 3.3 11.7 3 11.25 3ZM7.5 3H4.5V1.5H7.5V3Z" fill="#808080"/>
</svg>
