<svg width="10" height="12" viewBox="0 0 10 12" fill="none" xmlns="http://www.w3.org/2000/svg">
<path d="M5 0C2.8 0 0.5 1.7 0.5 4.5C0.5 7.15 4.5 11.2 4.65 11.35C4.75 11.45 4.85 11.5 5 11.5C5.15 11.5 5.25 11.45 5.35 11.35C5.5 11.2 9.5 7.15 9.5 4.5C9.5 1.7 7.2 0 5 0ZM5 6C4.15 6 3.5 5.35 3.5 4.5C3.5 3.65 4.15 3 5 3C5.85 3 6.5 3.65 6.5 4.5C6.5 5.35 5.85 6 5 6Z" fill="#808080"/>
</svg>
